{
    "title": "Alireza Sayars kanal",
    "fname": "Alireza",
    "lname": "Sayar",
    "img": "/assets/mat.jpg",
    "rooms": {
        "Samlingssal": "https://meet.google.com/lookup/alirezasayarltg",
        "Grupprum 1": "https://meet.google.com/lookup/alirezasayar1",
        "Grupprum 2": "https://meet.google.com/lookup/alirezasayar2",
        "Grupprum 3": "https://meet.google.com/lookup/alirezasayar3",
        "Grupprum 4": "https://meet.google.com/lookup/alirezasayar4",
        "Grupprum 5": "https://meet.google.com/lookup/alirezasayar5",
        "Grupprum 6": "https://meet.google.com/lookup/alirezasayar6",
        "Grupprum 7": "https://meet.google.com/lookup/alirezasayar7",
        "Grupprum 8": "https://meet.google.com/lookup/alirezasayar8",
        "Grupprum 9": "https://meet.google.com/lookup/alirezasayar9",
        "Grupprum 10": "https://meet.google.com/lookup/alirezasayar10"
    },
    "subjects": [
        "Matematik",
        "Gymnasiearbete",
        "..."
    ],
    "classes": {
        "Fysik 1 TE17C": {
            "info": "Inga länkar/instruktioner"
        },
        "Programmering 1 TE17": {
            "info": "Inga länkar/instruktioner"
        },
        "Programmering 1 TE17X": {
            "info": "Inga länkar/instruktioner"
        },
        "Webbutveckling 1 TE17AB": {
            "info": "Inga länkar/instruktioner"
        },
        "Webbutveckling 1 TE17B": {
            "info": "Inga länkar/instruktioner"
        }
    }
}