{
    "title": "Jonas Wigertson kanal",
    "fname": "Jonas",
    "lname": "Wigertson",
    "img": "/assets/fys.jpg",
    "rooms": {
        "Samlingssal": "https://meet.google.com/lookup/jonaswigertsonltg",
        "Grupprum 1": "https://meet.google.com/lookup/jonaswigertson1",
        "Grupprum 2": "https://meet.google.com/lookup/jonaswigertson2",
        "Grupprum 3": "https://meet.google.com/lookup/jonaswigertson3",
        "Grupprum 4": "https://meet.google.com/lookup/jonaswigertson4",
        "Grupprum 5": "https://meet.google.com/lookup/jonaswigertson5",
        "Grupprum 6": "https://meet.google.com/lookup/jonaswigertson6",
        "Grupprum 7": "https://meet.google.com/lookup/jonaswigertson7",
        "Grupprum 8": "https://meet.google.com/lookup/jonaswigertson8",
        "Grupprum 9": "https://meet.google.com/lookup/jonaswigertson9",
        "Grupprum 10": "https://meet.google.com/lookup/jonaswigertson10"
    },
    "subjects": [
        "Fysik",
        "..."
    ],
    "classes": {
        "Fysik 1 TE17C": {
            "info": "Inga länkar/instruktioner"
        },
        "Programmering 1 TE17": {
            "info": "Inga länkar/instruktioner"
        },
        "Programmering 1 TE17X": {
            "info": "Inga länkar/instruktioner"
        },
        "Webbutveckling 1 TE17AB": {
            "info": "Inga länkar/instruktioner"
        },
        "Webbutveckling 1 TE17B": {
            "info": "Inga länkar/instruktioner"
        }
    }
}